<?xml version="1.0" encoding="UTF-8" standalone="no"?>
<graphml xmlns="http://graphml.graphdrawing.org/xmlns" xmlns:java="http://www.yworks.com/xml/yfiles-common/1.0/java" xmlns:sys="http://www.yworks.com/xml/yfiles-common/markup/primitives/2.0" xmlns:x="http://www.yworks.com/xml/yfiles-common/markup/2.0" xmlns:xsi="http://www.w3.org/2001/XMLSchema-instance" xmlns:y="http://www.yworks.com/xml/graphml" xmlns:yed="http://www.yworks.com/xml/yed/3" xsi:schemaLocation="http://graphml.graphdrawing.org/xmlns http://www.yworks.com/xml/schema/graphml/1.1/ygraphml.xsd">
  <!--Created by yEd 3.15.0.2-->
  <key attr.name="Description" attr.type="string" for="graph" id="d0"/>
  <key for="port" id="d1" yfiles.type="portgraphics"/>
  <key for="port" id="d2" yfiles.type="portgeometry"/>
  <key for="port" id="d3" yfiles.type="portuserdata"/>
  <key attr.name="url" attr.type="string" for="node" id="d4"/>
  <key attr.name="description" attr.type="string" for="node" id="d5"/>
  <key for="node" id="d6" yfiles.type="nodegraphics"/>
  <key for="graphml" id="d7" yfiles.type="resources"/>
  <key attr.name="url" attr.type="string" for="edge" id="d8"/>
  <key attr.name="description" attr.type="string" for="edge" id="d9"/>
  <key for="edge" id="d10" yfiles.type="edgegraphics"/>
  <graph edgedefault="directed" id="G">
    <data key="d0"/>
    <node id="n0">
      <data key="d6">
        <y:SVGNode>
          <y:Geometry height="19.583999633789062" width="69.15814971923828" x="338.13392562866215" y="339.69999999999993"/>
          <y:Fill color="#CCCCFF" transparent="false"/>
          <y:BorderStyle color="#000000" type="line" width="1.0"/>
          <y:NodeLabel alignment="center" autoSizePolicy="content" fontFamily="Dialog" fontSize="12" fontStyle="plain" hasBackgroundColor="false" hasLineColor="false" height="18.701171875" modelName="custom" textColor="#000000" visible="true" width="71.177734375" x="-1.0097923278808594" y="23.583999633789062">Коммутатор<y:LabelModel>
              <y:SmartNodeLabelModel distance="4.0"/>
            </y:LabelModel>
            <y:ModelParameter>
              <y:SmartNodeLabelModelParameter labelRatioX="0.0" labelRatioY="-0.5" nodeRatioX="0.0" nodeRatioY="0.5" offsetX="0.0" offsetY="4.0" upX="0.0" upY="-1.0"/>
            </y:ModelParameter>
          </y:NodeLabel>
          <y:SVGNodeProperties usingVisualBounds="true"/>
          <y:SVGModel svgBoundsPolicy="0">
            <y:SVGContent refid="1"/>
          </y:SVGModel>
        </y:SVGNode>
      </data>
    </node>
    <node id="n1">
      <data key="d6">
        <y:SVGNode>
          <y:Geometry height="53.24563217163086" width="65.0260009765625" x="340.20000000000005" y="432.37718391418457"/>
          <y:Fill color="#CCCCFF" transparent="false"/>
          <y:BorderStyle color="#000000" type="line" width="1.0"/>
          <y:NodeLabel alignment="center" autoSizePolicy="content" fontFamily="Dialog" fontSize="12" fontStyle="plain" hasBackgroundColor="false" hasLineColor="false" height="18.701171875" modelName="custom" textColor="#000000" visible="true" width="102.572265625" x="-18.77313232421875" y="57.24563217163086">Управляющий ПК<y:LabelModel>
              <y:SmartNodeLabelModel distance="4.0"/>
            </y:LabelModel>
            <y:ModelParameter>
              <y:SmartNodeLabelModelParameter labelRatioX="0.0" labelRatioY="-0.5" nodeRatioX="0.0" nodeRatioY="0.5" offsetX="0.0" offsetY="4.0" upX="0.0" upY="-1.0"/>
            </y:ModelParameter>
          </y:NodeLabel>
          <y:SVGNodeProperties usingVisualBounds="true"/>
          <y:SVGModel svgBoundsPolicy="0">
            <y:SVGContent refid="2"/>
          </y:SVGModel>
        </y:SVGNode>
      </data>
    </node>
    <node id="n2">
      <data key="d6">
        <y:GenericNode configuration="BevelNode3">
          <y:Geometry height="53.24563217163086" width="88.0" x="424.8" y="214.33036727905264"/>
          <y:Fill color="#FF9900" transparent="false"/>
          <y:BorderStyle hasColor="false" type="line" width="1.0"/>
          <y:NodeLabel alignment="center" autoSizePolicy="content" fontFamily="Dialog" fontSize="12" fontStyle="plain" hasBackgroundColor="false" hasLineColor="false" height="62.8046875" modelName="custom" textColor="#000000" visible="true" width="78.712890625" x="4.6435546875" y="-13.918241470295897">
Arduino Mega
2560
(Ось Х)<y:LabelModel>
              <y:SmartNodeLabelModel distance="4.0"/>
            </y:LabelModel>
            <y:ModelParameter>
              <y:SmartNodeLabelModelParameter labelRatioX="0.0" labelRatioY="-0.2783884925739679" nodeRatioX="0.0" nodeRatioY="-0.5" offsetX="0.0" offsetY="0.0" upX="0.0" upY="-1.0"/>
            </y:ModelParameter>
          </y:NodeLabel>
        </y:GenericNode>
      </data>
    </node>
    <node id="n3">
      <data key="d6">
        <y:GenericNode configuration="ShinyPlateNode2">
          <y:Geometry height="19.583999633789062" width="146.60000000000002" x="534.1" y="95.59999999999997"/>
          <y:Fill color="#FF9900" transparent="false"/>
          <y:BorderStyle hasColor="false" type="line" width="1.0"/>
          <y:NodeLabel alignment="center" autoSizePolicy="content" fontFamily="Dialog" fontSize="12" fontStyle="plain" hasBackgroundColor="false" hasLineColor="false" height="18.701171875" modelName="custom" textColor="#000000" visible="true" width="118.345703125" x="14.127148437500068" y="0.44141387939453125">Оптическая линейка<y:LabelModel>
              <y:SmartNodeLabelModel distance="4.0"/>
            </y:LabelModel>
            <y:ModelParameter>
              <y:SmartNodeLabelModelParameter labelRatioX="0.0" labelRatioY="0.0" nodeRatioX="0.0" nodeRatioY="0.0" offsetX="0.0" offsetY="0.0" upX="0.0" upY="-1.0"/>
            </y:ModelParameter>
          </y:NodeLabel>
        </y:GenericNode>
      </data>
    </node>
    <node id="n4">
      <data key="d6">
        <y:GenericNode configuration="ShinyPlateNode2">
          <y:Geometry height="45.20000000000002" width="130.60000000000002" x="403.5" y="128.5919998168945"/>
          <y:Fill color="#FF9900" transparent="false"/>
          <y:BorderStyle hasColor="false" type="line" width="1.0"/>
          <y:NodeLabel alignment="center" autoSizePolicy="content" fontFamily="Dialog" fontSize="12" fontStyle="plain" hasBackgroundColor="false" hasLineColor="false" height="33.40234375" modelName="custom" textColor="#000000" visible="true" width="120.958984375" x="4.820507812500011" y="5.898828124999994">Драйвер управления
двигателем<y:LabelModel>
              <y:SmartNodeLabelModel distance="4.0"/>
            </y:LabelModel>
            <y:ModelParameter>
              <y:SmartNodeLabelModelParameter labelRatioX="0.0" labelRatioY="0.0" nodeRatioX="0.0" nodeRatioY="0.0" offsetX="0.0" offsetY="0.0" upX="0.0" upY="-1.0"/>
            </y:ModelParameter>
          </y:NodeLabel>
        </y:GenericNode>
      </data>
    </node>
    <node id="n5">
      <data key="d6">
        <y:GenericNode configuration="ShinyPlateNode2">
          <y:Geometry height="45.20000000000002" width="65.0260009765625" x="436.28699951171876" y="53.3919998168945"/>
          <y:Fill color="#FF9900" transparent="false"/>
          <y:BorderStyle hasColor="false" type="line" width="1.0"/>
          <y:NodeLabel alignment="center" autoSizePolicy="content" fontFamily="Dialog" fontSize="12" fontStyle="plain" hasBackgroundColor="false" hasLineColor="false" height="33.40234375" modelName="custom" textColor="#000000" visible="true" width="60.5546875" x="2.23565673828125" y="5.8988281250000085">Шаговый
двигатель<y:LabelModel>
              <y:SmartNodeLabelModel distance="4.0"/>
            </y:LabelModel>
            <y:ModelParameter>
              <y:SmartNodeLabelModelParameter labelRatioX="0.0" labelRatioY="0.0" nodeRatioX="0.0" nodeRatioY="0.0" offsetX="0.0" offsetY="0.0" upX="0.0" upY="-1.0"/>
            </y:ModelParameter>
          </y:NodeLabel>
        </y:GenericNode>
      </data>
    </node>
    <node id="n6">
      <data key="d6">
        <y:SVGNode>
          <y:Geometry height="37.0" width="88.0" x="453.0" y="330.99199981689446"/>
          <y:Fill color="#CCCCFF" transparent="false"/>
          <y:BorderStyle color="#000000" type="line" width="1.0"/>
          <y:NodeLabel alignment="center" autoSizePolicy="content" fontFamily="Dialog" fontSize="12" fontStyle="plain" hasBackgroundColor="false" hasLineColor="false" height="33.40234375" modelName="custom" textColor="#000000" visible="true" width="68.69921875" x="9.650390625" y="41.0">Векторный
анализатор<y:LabelModel>
              <y:SmartNodeLabelModel distance="4.0"/>
            </y:LabelModel>
            <y:ModelParameter>
              <y:SmartNodeLabelModelParameter labelRatioX="0.0" labelRatioY="-0.5" nodeRatioX="0.0" nodeRatioY="0.5" offsetX="0.0" offsetY="4.0" upX="0.0" upY="-1.0"/>
            </y:ModelParameter>
          </y:NodeLabel>
          <y:SVGNodeProperties usingVisualBounds="true"/>
          <y:SVGModel svgBoundsPolicy="0">
            <y:SVGContent refid="3"/>
          </y:SVGModel>
        </y:SVGNode>
      </data>
    </node>
    <node id="n7">
      <data key="d6">
        <y:GenericNode configuration="BevelNode3">
          <y:Geometry height="53.24563217163089" width="88.0" x="306.8" y="214.33036727905267"/>
          <y:Fill color="#FF9900" transparent="false"/>
          <y:BorderStyle hasColor="false" type="line" width="1.0"/>
          <y:NodeLabel alignment="center" autoSizePolicy="content" fontFamily="Dialog" fontSize="12" fontStyle="plain" hasBackgroundColor="false" hasLineColor="false" height="62.8046875" modelName="custom" textColor="#000000" visible="true" width="78.712890625" x="4.6435546875" y="-13.91824147029584">
Arduino Mega
2560
(Ось Y)<y:LabelModel>
              <y:SmartNodeLabelModel distance="4.0"/>
            </y:LabelModel>
            <y:ModelParameter>
              <y:SmartNodeLabelModelParameter labelRatioX="0.0" labelRatioY="-0.2783884925739679" nodeRatioX="0.0" nodeRatioY="-0.5" offsetX="0.0" offsetY="0.0" upX="0.0" upY="-1.0"/>
            </y:ModelParameter>
          </y:NodeLabel>
        </y:GenericNode>
      </data>
    </node>
    <node id="n8">
      <data key="d6">
        <y:GenericNode configuration="ShinyPlateNode2">
          <y:Geometry height="19.583999633789062" width="146.60000000000002" x="108.89999999999998" y="114.79999999999993"/>
          <y:Fill color="#FF9900" transparent="false"/>
          <y:BorderStyle hasColor="false" type="line" width="1.0"/>
          <y:NodeLabel alignment="center" autoSizePolicy="content" fontFamily="Dialog" fontSize="12" fontStyle="plain" hasBackgroundColor="false" hasLineColor="false" height="18.701171875" modelName="custom" textColor="#000000" visible="true" width="118.345703125" x="14.127148437500011" y="0.44141387939453125">Оптическая линейка<y:LabelModel>
              <y:SmartNodeLabelModel distance="4.0"/>
            </y:LabelModel>
            <y:ModelParameter>
              <y:SmartNodeLabelModelParameter labelRatioX="0.0" labelRatioY="0.0" nodeRatioX="0.0" nodeRatioY="0.0" offsetX="0.0" offsetY="0.0" upX="0.0" upY="-1.0"/>
            </y:ModelParameter>
          </y:NodeLabel>
        </y:GenericNode>
      </data>
    </node>
    <node id="n9">
      <data key="d6">
        <y:GenericNode configuration="ShinyPlateNode2">
          <y:Geometry height="45.20000000000002" width="130.60000000000002" x="264.2" y="128.5919998168945"/>
          <y:Fill color="#FF9900" transparent="false"/>
          <y:BorderStyle hasColor="false" type="line" width="1.0"/>
          <y:NodeLabel alignment="center" autoSizePolicy="content" fontFamily="Dialog" fontSize="12" fontStyle="plain" hasBackgroundColor="false" hasLineColor="false" height="33.40234375" modelName="custom" textColor="#000000" visible="true" width="120.958984375" x="4.820507812500011" y="5.898828124999994">Драйвер управления
двигателем<y:LabelModel>
              <y:SmartNodeLabelModel distance="4.0"/>
            </y:LabelModel>
            <y:ModelParameter>
              <y:SmartNodeLabelModelParameter labelRatioX="0.0" labelRatioY="0.0" nodeRatioX="0.0" nodeRatioY="0.0" offsetX="0.0" offsetY="0.0" upX="0.0" upY="-1.0"/>
            </y:ModelParameter>
          </y:NodeLabel>
        </y:GenericNode>
      </data>
    </node>
    <node id="n10">
      <data key="d6">
        <y:GenericNode configuration="ShinyPlateNode2">
          <y:Geometry height="45.20000000000002" width="65.0260009765625" x="296.98699951171875" y="53.3919998168945"/>
          <y:Fill color="#FF9900" transparent="false"/>
          <y:BorderStyle hasColor="false" type="line" width="1.0"/>
          <y:NodeLabel alignment="center" autoSizePolicy="content" fontFamily="Dialog" fontSize="12" fontStyle="plain" hasBackgroundColor="false" hasLineColor="false" height="33.40234375" modelName="custom" textColor="#000000" visible="true" width="60.5546875" x="2.23565673828125" y="5.8988281250000085">Шаговый
двигатель<y:LabelModel>
              <y:SmartNodeLabelModel distance="4.0"/>
            </y:LabelModel>
            <y:ModelParameter>
              <y:SmartNodeLabelModelParameter labelRatioX="0.0" labelRatioY="0.0" nodeRatioX="0.0" nodeRatioY="0.0" offsetX="0.0" offsetY="0.0" upX="0.0" upY="-1.0"/>
            </y:ModelParameter>
          </y:NodeLabel>
        </y:GenericNode>
      </data>
    </node>
    <node id="n11">
      <data key="d6">
        <y:GenericNode configuration="BevelNode3">
          <y:Geometry height="53.24563217163083" width="88.0" x="188.79999999999998" y="245.57718391418462"/>
          <y:Fill color="#FF9900" transparent="false"/>
          <y:BorderStyle hasColor="false" type="line" width="1.0"/>
          <y:NodeLabel alignment="center" autoSizePolicy="content" fontFamily="Dialog" fontSize="12" fontStyle="plain" hasBackgroundColor="false" hasLineColor="false" height="62.8046875" modelName="custom" textColor="#000000" visible="true" width="78.712890625" x="4.6435546875" y="-13.918241470295868">
Arduino Mega
2560
(Оси Z и Z1)<y:LabelModel>
              <y:SmartNodeLabelModel distance="4.0"/>
            </y:LabelModel>
            <y:ModelParameter>
              <y:SmartNodeLabelModelParameter labelRatioX="0.0" labelRatioY="-0.2783884925739679" nodeRatioX="0.0" nodeRatioY="-0.5" offsetX="0.0" offsetY="0.0" upX="0.0" upY="-1.0"/>
            </y:ModelParameter>
          </y:NodeLabel>
        </y:GenericNode>
      </data>
    </node>
    <node id="n12">
      <data key="d6">
        <y:GenericNode configuration="ShinyPlateNode2">
          <y:Geometry height="19.583999633789062" width="146.60000000000002" x="-32.46199951171879" y="262.40800018310546"/>
          <y:Fill color="#FF9900" transparent="false"/>
          <y:BorderStyle hasColor="false" type="line" width="1.0"/>
          <y:NodeLabel alignment="center" autoSizePolicy="content" fontFamily="Dialog" fontSize="12" fontStyle="plain" hasBackgroundColor="false" hasLineColor="false" height="18.701171875" modelName="custom" textColor="#000000" visible="true" width="118.345703125" x="14.127148437500011" y="0.44141387939453125">Оптическая линейка<y:LabelModel>
              <y:SmartNodeLabelModel distance="4.0"/>
            </y:LabelModel>
            <y:ModelParameter>
              <y:SmartNodeLabelModelParameter labelRatioX="0.0" labelRatioY="0.0" nodeRatioX="0.0" nodeRatioY="0.0" offsetX="0.0" offsetY="0.0" upX="0.0" upY="-1.0"/>
            </y:ModelParameter>
          </y:NodeLabel>
        </y:GenericNode>
      </data>
    </node>
    <node id="n13">
      <data key="d6">
        <y:GenericNode configuration="ShinyPlateNode2">
          <y:Geometry height="45.20000000000002" width="130.60000000000002" x="40.925" y="147.383999633789"/>
          <y:Fill color="#FF9900" transparent="false"/>
          <y:BorderStyle hasColor="false" type="line" width="1.0"/>
          <y:NodeLabel alignment="center" autoSizePolicy="content" fontFamily="Dialog" fontSize="12" fontStyle="plain" hasBackgroundColor="false" hasLineColor="false" height="33.40234375" modelName="custom" textColor="#000000" visible="true" width="120.958984375" x="4.820507812500011" y="5.898828124999994">Драйвер управления
двигателем<y:LabelModel>
              <y:SmartNodeLabelModel distance="4.0"/>
            </y:LabelModel>
            <y:ModelParameter>
              <y:SmartNodeLabelModelParameter labelRatioX="0.0" labelRatioY="0.0" nodeRatioX="0.0" nodeRatioY="0.0" offsetX="0.0" offsetY="0.0" upX="0.0" upY="-1.0"/>
            </y:ModelParameter>
          </y:NodeLabel>
        </y:GenericNode>
      </data>
    </node>
    <node id="n14">
      <data key="d6">
        <y:GenericNode configuration="ShinyPlateNode2">
          <y:Geometry height="45.20000000000002" width="65.0260009765625" x="32.28699951171876" y="69.98399963378901"/>
          <y:Fill color="#FF9900" transparent="false"/>
          <y:BorderStyle hasColor="false" type="line" width="1.0"/>
          <y:NodeLabel alignment="center" autoSizePolicy="content" fontFamily="Dialog" fontSize="12" fontStyle="plain" hasBackgroundColor="false" hasLineColor="false" height="33.40234375" modelName="custom" textColor="#000000" visible="true" width="60.5546875" x="2.23565673828125" y="5.8988281250000085">Шаговый
двигатель<y:LabelModel>
              <y:SmartNodeLabelModel distance="4.0"/>
            </y:LabelModel>
            <y:ModelParameter>
              <y:SmartNodeLabelModelParameter labelRatioX="0.0" labelRatioY="0.0" nodeRatioX="0.0" nodeRatioY="0.0" offsetX="0.0" offsetY="0.0" upX="0.0" upY="-1.0"/>
            </y:ModelParameter>
          </y:NodeLabel>
        </y:GenericNode>
      </data>
    </node>
    <node id="n15">
      <data key="d6">
        <y:GenericNode configuration="ShinyPlateNode2">
          <y:Geometry height="45.20000000000002" width="130.60000000000002" x="-24.461999511718787" y="205.583999633789"/>
          <y:Fill color="#FF9900" transparent="false"/>
          <y:BorderStyle hasColor="false" type="line" width="1.0"/>
          <y:NodeLabel alignment="center" autoSizePolicy="content" fontFamily="Dialog" fontSize="12" fontStyle="plain" hasBackgroundColor="false" hasLineColor="false" height="33.40234375" modelName="custom" textColor="#000000" visible="true" width="120.958984375" x="4.820507812500011" y="5.898828125000023">Драйвер управления
двигателем<y:LabelModel>
              <y:SmartNodeLabelModel distance="4.0"/>
            </y:LabelModel>
            <y:ModelParameter>
              <y:SmartNodeLabelModelParameter labelRatioX="0.0" labelRatioY="0.0" nodeRatioX="0.0" nodeRatioY="0.0" offsetX="0.0" offsetY="0.0" upX="0.0" upY="-1.0"/>
            </y:ModelParameter>
          </y:NodeLabel>
        </y:GenericNode>
      </data>
    </node>
    <node id="n16">
      <data key="d6">
        <y:GenericNode configuration="ShinyPlateNode2">
          <y:Geometry height="45.20000000000002" width="65.0260009765625" x="-62.73900146484374" y="135.58399963378898"/>
          <y:Fill color="#FF9900" transparent="false"/>
          <y:BorderStyle hasColor="false" type="line" width="1.0"/>
          <y:NodeLabel alignment="center" autoSizePolicy="content" fontFamily="Dialog" fontSize="12" fontStyle="plain" hasBackgroundColor="false" hasLineColor="false" height="33.40234375" modelName="custom" textColor="#000000" visible="true" width="60.5546875" x="2.23565673828125" y="5.898828124999994">Шаговый
двигатель<y:LabelModel>
              <y:SmartNodeLabelModel distance="4.0"/>
            </y:LabelModel>
            <y:ModelParameter>
              <y:SmartNodeLabelModelParameter labelRatioX="0.0" labelRatioY="0.0" nodeRatioX="0.0" nodeRatioY="0.0" offsetX="0.0" offsetY="0.0" upX="0.0" upY="-1.0"/>
            </y:ModelParameter>
          </y:NodeLabel>
        </y:GenericNode>
      </data>
    </node>
    <edge id="e0" source="n1" target="n6">
      <data key="d10">
        <y:PolyLineEdge>
          <y:Path sx="0.0" sy="0.0" tx="0.0" ty="0.0"/>
          <y:LineStyle color="#000000" type="line" width="1.0"/>
          <y:Arrows source="none" target="standard"/>
          <y:BendStyle smoothed="false"/>
        </y:PolyLineEdge>
      </data>
    </edge>
    <edge id="e1" source="n6" target="n1">
      <data key="d10">
        <y:PolyLineEdge>
          <y:Path sx="0.0" sy="0.0" tx="0.0" ty="0.0"/>
          <y:LineStyle color="#000000" type="line" width="1.0"/>
          <y:Arrows source="none" target="standard"/>
          <y:BendStyle smoothed="false"/>
        </y:PolyLineEdge>
      </data>
    </edge>
    <edge id="e2" source="n1" target="n0">
      <data key="d10">
        <y:PolyLineEdge>
          <y:Path sx="0.0" sy="0.0" tx="0.0" ty="0.0"/>
          <y:LineStyle color="#000000" type="line" width="1.0"/>
          <y:Arrows source="none" target="standard"/>
          <y:BendStyle smoothed="false"/>
        </y:PolyLineEdge>
      </data>
    </edge>
    <edge id="e3" source="n0" target="n2">
      <data key="d10">
        <y:PolyLineEdge>
          <y:Path sx="0.0" sy="0.0" tx="0.0" ty="0.0"/>
          <y:LineStyle color="#000000" type="line" width="1.0"/>
          <y:Arrows source="none" target="standard"/>
          <y:BendStyle smoothed="false"/>
        </y:PolyLineEdge>
      </data>
    </edge>
    <edge id="e4" source="n2" target="n0">
      <data key="d10">
        <y:PolyLineEdge>
          <y:Path sx="0.0" sy="0.0" tx="0.0" ty="0.0"/>
          <y:LineStyle color="#000000" type="line" width="1.0"/>
          <y:Arrows source="none" target="standard"/>
          <y:BendStyle smoothed="false"/>
        </y:PolyLineEdge>
      </data>
    </edge>
    <edge id="e5" source="n0" target="n1">
      <data key="d10">
        <y:PolyLineEdge>
          <y:Path sx="0.0" sy="0.0" tx="0.0" ty="0.0"/>
          <y:LineStyle color="#000000" type="line" width="1.0"/>
          <y:Arrows source="none" target="standard"/>
          <y:BendStyle smoothed="false"/>
        </y:PolyLineEdge>
      </data>
    </edge>
    <edge id="e6" source="n2" target="n6">
      <data key="d10">
        <y:PolyLineEdge>
          <y:Path sx="0.0" sy="0.0" tx="0.0" ty="0.0"/>
          <y:LineStyle color="#000000" type="line" width="1.0"/>
          <y:Arrows source="none" target="standard"/>
          <y:BendStyle smoothed="false"/>
        </y:PolyLineEdge>
      </data>
    </edge>
    <edge id="e7" source="n3" target="n2">
      <data key="d10">
        <y:PolyLineEdge>
          <y:Path sx="0.0" sy="0.0" tx="0.0" ty="0.0"/>
          <y:LineStyle color="#000000" type="line" width="1.0"/>
          <y:Arrows source="none" target="standard"/>
          <y:BendStyle smoothed="false"/>
        </y:PolyLineEdge>
      </data>
    </edge>
    <edge id="e8" source="n2" target="n4">
      <data key="d10">
        <y:PolyLineEdge>
          <y:Path sx="0.0" sy="0.0" tx="0.0" ty="0.0"/>
          <y:LineStyle color="#000000" type="line" width="1.0"/>
          <y:Arrows source="none" target="standard"/>
          <y:BendStyle smoothed="false"/>
        </y:PolyLineEdge>
      </data>
    </edge>
    <edge id="e9" source="n4" target="n5">
      <data key="d10">
        <y:PolyLineEdge>
          <y:Path sx="0.0" sy="0.0" tx="0.0" ty="0.0"/>
          <y:LineStyle color="#000000" type="line" width="1.0"/>
          <y:Arrows source="none" target="standard"/>
          <y:BendStyle smoothed="false"/>
        </y:PolyLineEdge>
      </data>
    </edge>
    <edge id="e10" source="n7" target="n9">
      <data key="d10">
        <y:PolyLineEdge>
          <y:Path sx="0.0" sy="0.0" tx="0.0" ty="0.0"/>
          <y:LineStyle color="#000000" type="line" width="1.0"/>
          <y:Arrows source="none" target="standard"/>
          <y:BendStyle smoothed="false"/>
        </y:PolyLineEdge>
      </data>
    </edge>
    <edge id="e11" source="n9" target="n10">
      <data key="d10">
        <y:PolyLineEdge>
          <y:Path sx="0.0" sy="0.0" tx="0.0" ty="0.0"/>
          <y:LineStyle color="#000000" type="line" width="1.0"/>
          <y:Arrows source="none" target="standard"/>
          <y:BendStyle smoothed="false"/>
        </y:PolyLineEdge>
      </data>
    </edge>
    <edge id="e12" source="n12" target="n11">
      <data key="d10">
        <y:PolyLineEdge>
          <y:Path sx="0.0" sy="0.0" tx="0.0" ty="0.0"/>
          <y:LineStyle color="#000000" type="line" width="1.0"/>
          <y:Arrows source="none" target="standard"/>
          <y:BendStyle smoothed="false"/>
        </y:PolyLineEdge>
      </data>
    </edge>
    <edge id="e13" source="n11" target="n13">
      <data key="d10">
        <y:PolyLineEdge>
          <y:Path sx="0.0" sy="0.0" tx="0.0" ty="0.0"/>
          <y:LineStyle color="#000000" type="line" width="1.0"/>
          <y:Arrows source="none" target="standard"/>
          <y:BendStyle smoothed="false"/>
        </y:PolyLineEdge>
      </data>
    </edge>
    <edge id="e14" source="n13" target="n14">
      <data key="d10">
        <y:PolyLineEdge>
          <y:Path sx="0.0" sy="0.0" tx="0.0" ty="0.0"/>
          <y:LineStyle color="#000000" type="line" width="1.0"/>
          <y:Arrows source="none" target="standard"/>
          <y:BendStyle smoothed="false"/>
        </y:PolyLineEdge>
      </data>
    </edge>
    <edge id="e15" source="n15" target="n16">
      <data key="d10">
        <y:PolyLineEdge>
          <y:Path sx="0.0" sy="0.0" tx="0.0" ty="0.0"/>
          <y:LineStyle color="#000000" type="line" width="1.0"/>
          <y:Arrows source="none" target="standard"/>
          <y:BendStyle smoothed="false"/>
        </y:PolyLineEdge>
      </data>
    </edge>
    <edge id="e16" source="n11" target="n15">
      <data key="d10">
        <y:PolyLineEdge>
          <y:Path sx="0.0" sy="0.0" tx="0.0" ty="0.0"/>
          <y:LineStyle color="#000000" type="line" width="1.0"/>
          <y:Arrows source="none" target="standard"/>
          <y:BendStyle smoothed="false"/>
        </y:PolyLineEdge>
      </data>
    </edge>
    <edge id="e17" source="n7" target="n0">
      <data key="d10">
        <y:PolyLineEdge>
          <y:Path sx="0.0" sy="0.0" tx="0.0" ty="0.0"/>
          <y:LineStyle color="#000000" type="line" width="1.0"/>
          <y:Arrows source="none" target="standard"/>
          <y:BendStyle smoothed="false"/>
        </y:PolyLineEdge>
      </data>
    </edge>
    <edge id="e18" source="n0" target="n7">
      <data key="d10">
        <y:PolyLineEdge>
          <y:Path sx="0.0" sy="0.0" tx="0.0" ty="0.0"/>
          <y:LineStyle color="#000000" type="line" width="1.0"/>
          <y:Arrows source="none" target="standard"/>
          <y:BendStyle smoothed="false"/>
        </y:PolyLineEdge>
      </data>
    </edge>
    <edge id="e19" source="n11" target="n0">
      <data key="d10">
        <y:PolyLineEdge>
          <y:Path sx="0.0" sy="0.0" tx="0.0" ty="0.0"/>
          <y:LineStyle color="#000000" type="line" width="1.0"/>
          <y:Arrows source="none" target="standard"/>
          <y:BendStyle smoothed="false"/>
        </y:PolyLineEdge>
      </data>
    </edge>
    <edge id="e20" source="n0" target="n11">
      <data key="d10">
        <y:PolyLineEdge>
          <y:Path sx="0.0" sy="0.0" tx="0.0" ty="0.0"/>
          <y:LineStyle color="#000000" type="line" width="1.0"/>
          <y:Arrows source="none" target="standard"/>
          <y:BendStyle smoothed="false"/>
        </y:PolyLineEdge>
      </data>
    </edge>
    <edge id="e21" source="n7" target="n6">
      <data key="d9"/>
      <data key="d10">
        <y:BezierEdge>
          <y:Path sx="0.0" sy="0.0" tx="0.0" ty="0.0">
            <y:Point x="430.19730404352043" y="308.9738028543999"/>
            <y:Point x="421.6804342272004" y="287.80598942719985"/>
            <y:Point x="429.9012700672004" y="304.91874974719985"/>
          </y:Path>
          <y:LineStyle color="#000000" type="line" width="1.0"/>
          <y:Arrows source="none" target="standard"/>
        </y:BezierEdge>
      </data>
    </edge>
    <edge id="e22" source="n11" target="n6">
      <data key="d9"/>
      <data key="d10">
        <y:BezierEdge>
          <y:Path sx="0.0" sy="0.0" tx="0.0" ty="0.0">
            <y:Point x="380.24745042944" y="315.0082305945597"/>
            <y:Point x="354.4843575398401" y="293.34255328255966"/>
            <y:Point x="375.0733570150401" y="308.27962326015955"/>
            <y:Point x="399.41382063104015" y="312.6445420441596"/>
            <y:Point x="410.3190110310402" y="306.94028860415955"/>
            <y:Point x="411.6611883110402" y="318.8521119641596"/>
          </y:Path>
          <y:LineStyle color="#000000" type="line" width="1.0"/>
          <y:Arrows source="none" target="standard"/>
        </y:BezierEdge>
      </data>
    </edge>
    <edge id="e23" source="n8" target="n7">
      <data key="d9"/>
      <data key="d10">
        <y:PolyLineEdge>
          <y:Path sx="0.0" sy="0.0" tx="0.0" ty="0.0"/>
          <y:LineStyle color="#000000" type="line" width="1.0"/>
          <y:Arrows source="none" target="standard"/>
          <y:BendStyle smoothed="false"/>
        </y:PolyLineEdge>
      </data>
    </edge>
  </graph>
  <data key="d7">
    <y:Resources>
      <y:Resource id="1">&lt;?xml version="1.0" encoding="utf-8"?&gt;
&lt;svg version="1.1"
	 xmlns="http://www.w3.org/2000/svg" xmlns:xlink="http://www.w3.org/1999/xlink"
	 x="0px" y="0px" width="71px" height="20px" viewBox="-0.998 -0.189 71 20" enable-background="new -0.998 -0.189 71 20"
	 xml:space="preserve"&gt;
&lt;defs&gt;
&lt;/defs&gt;
&lt;linearGradient id="SVGID_1_" gradientUnits="userSpaceOnUse" x1="166.2588" y1="-255.0679" x2="97.0793" y2="-255.0679" gradientTransform="matrix(1 0 0 -1 -97.6001 -245.2793)"&gt;
	&lt;stop  offset="0" style="stop-color:#6E6E6E"/&gt;
	&lt;stop  offset="0.1059" style="stop-color:#707070"/&gt;
	&lt;stop  offset="0.1647" style="stop-color:#787878"/&gt;
	&lt;stop  offset="0.1939" style="stop-color:#808080"/&gt;
	&lt;stop  offset="0.4146" style="stop-color:#838383"/&gt;
	&lt;stop  offset="0.5499" style="stop-color:#8B8B8B"/&gt;
	&lt;stop  offset="0.6622" style="stop-color:#999999"/&gt;
	&lt;stop  offset="0.7614" style="stop-color:#AEAEAE"/&gt;
	&lt;stop  offset="0.7818" style="stop-color:#B3B3B3"/&gt;
&lt;/linearGradient&gt;
&lt;path fill="url(#SVGID_1_)" d="M67.531,7.236c0.005,0,0.017,0.002,0.017,0.002l-0.062-0.031c-0.027-0.015-0.055-0.027-0.082-0.041
	l-11.06-5.477c-1.225-0.615-3.346-1.203-4.713-1.307c0,0-5.071-0.383-16.858-0.383C25.138,0,17.44,0.431,17.44,0.431
	c-1.37,0.077-3.495,0.637-4.724,1.243L1.976,7.02h0.001C0.852,7.342,0,8.412,0,9.607v6.232c0,1.371,1.118,2.584,2.484,2.695
	c0,0,12.681,1.037,32.001,1.043c19.943,0.006,32.001-1.031,32.001-1.031c1.365-0.118,2.481-1.336,2.481-2.707V9.607
	C68.971,8.613,68.378,7.705,67.531,7.236z M34.96,5.869c-0.091,0-0.181,0-0.272,0c0.029,0,0.058,0,0.087,0
	C34.837,5.869,34.898,5.869,34.96,5.869z M33.312,5.873c-0.047,0-0.094,0-0.141,0C33.218,5.873,33.265,5.873,33.312,5.873z"/&gt;
&lt;linearGradient id="SVGID_2_" gradientUnits="userSpaceOnUse" x1="161.5615" y1="-258.8867" x2="102.6104" y2="-258.8867" gradientTransform="matrix(1 0 0 -1 -97.6001 -245.2793)"&gt;
	&lt;stop  offset="0" style="stop-color:#3C89C9"/&gt;
	&lt;stop  offset="0.0948" style="stop-color:#579FD8"/&gt;
	&lt;stop  offset="0.2096" style="stop-color:#70B3E6"/&gt;
	&lt;stop  offset="0.338" style="stop-color:#84C3F1"/&gt;
	&lt;stop  offset="0.4855" style="stop-color:#92CFF9"/&gt;
	&lt;stop  offset="0.6692" style="stop-color:#9AD5FE"/&gt;
	&lt;stop  offset="1" style="stop-color:#9CD7FF"/&gt;
&lt;/linearGradient&gt;
&lt;path fill="url(#SVGID_2_)" stroke="#8D8D8D" stroke-width="0.3116" stroke-miterlimit="10" d="M62.746,9.363
	c-0.643-0.209-18.186-0.222-28.259-0.222C26.25,9.142,6.7,9.177,6.7,9.177h0.001c-0.961,0.274-1.689,1.19-1.689,2.212v3.878
	c0,1.172,0.956,2.209,2.124,2.304c0,0,10.837,0.498,27.351,0.504c17.047,0.004,27.355-0.494,27.355-0.494
	c1.167-0.101,2.121-1.142,2.121-2.313V11.39C63.962,10.539,63.389,9.572,62.746,9.363z"/&gt;
&lt;path opacity="0.29" fill="#FFFFFF" enable-background="new    " d="M62.746,9.363c-0.643-0.209-18.186-0.222-28.259-0.222
	C26.25,9.142,6.7,9.177,6.7,9.177h0.001c-0.961,0.274-1.689,1.19-1.689,2.212v3.878l58.95-2.039v-1.839
	C63.962,10.539,63.389,9.572,62.746,9.363z"/&gt;
&lt;rect x="66.322" y="10.801" fill="#C8FF00" stroke="#717171" stroke-width="0.0623" stroke-miterlimit="10" width="2.805" height="1.143"/&gt;
&lt;polygon fill="#4D4D4D" stroke="#D9F1FF" stroke-width="0.3739" stroke-miterlimit="10" points="49.29,10.748 42.436,10.748 
	42.436,15.734 44.512,15.734 44.512,16.412 47.213,16.412 47.212,15.734 49.29,15.734 "/&gt;
&lt;polygon fill="#4D4D4D" stroke="#D9F1FF" stroke-width="0.3739" stroke-miterlimit="10" points="37.79,10.748 30.935,10.748 
	30.935,15.734 33.012,15.734 33.012,16.412 35.713,16.412 35.712,15.734 37.79,15.734 "/&gt;
&lt;polygon fill="#4D4D4D" stroke="#D9F1FF" stroke-width="0.3739" stroke-miterlimit="10" points="26.29,10.748 19.435,10.748 
	19.435,15.734 21.512,15.734 21.512,16.412 24.213,16.412 24.212,15.734 26.29,15.734 "/&gt;
&lt;polygon fill="#4D4D4D" stroke="#D9F1FF" stroke-width="0.3739" stroke-miterlimit="10" points="14.79,10.748 7.935,10.748 
	7.935,15.734 10.012,15.734 10.012,16.412 12.713,16.412 12.712,15.734 14.79,15.734 "/&gt;
&lt;polygon fill="#4D4D4D" stroke="#D9F1FF" stroke-width="0.3739" stroke-miterlimit="10" points="60.79,10.748 53.936,10.748 
	53.936,15.734 56.012,15.734 56.012,16.412 58.713,16.412 58.712,15.734 60.79,15.734 "/&gt;
&lt;/svg&gt;
</y:Resource>
      <y:Resource id="2">&lt;?xml version="1.0" encoding="utf-8"?&gt;
&lt;svg version="1.1"
	 xmlns="http://www.w3.org/2000/svg" xmlns:xlink="http://www.w3.org/1999/xlink"
	 x="0px" y="0px" width="65px" height="53px" viewBox="-0.811 -0.063 65 53" enable-background="new -0.811 -0.063 65 53"
	 xml:space="preserve"&gt;
&lt;defs&gt;
&lt;/defs&gt;
&lt;linearGradient id="SVGID_1_" gradientUnits="userSpaceOnUse" x1="220.9624" y1="824.415" x2="220.9624" y2="801.0922" gradientTransform="matrix(1 0 0 1 -195.2002 -770.8008)"&gt;
	&lt;stop  offset="0.0319" style="stop-color:#808080"/&gt;
	&lt;stop  offset="0.1229" style="stop-color:#939393"/&gt;
	&lt;stop  offset="0.2702" style="stop-color:#ABABAB"/&gt;
	&lt;stop  offset="0.4266" style="stop-color:#BCBCBC"/&gt;
	&lt;stop  offset="0.5968" style="stop-color:#C6C6C6"/&gt;
	&lt;stop  offset="0.8061" style="stop-color:#C9C9C9"/&gt;
&lt;/linearGradient&gt;
&lt;path fill="url(#SVGID_1_)" d="M51.333,51.918c0.195,0.459-0.053,0.836-0.553,0.836H0.58c-0.5,0-0.604-0.272-0.232-0.605
	l8.023-7.191c0.373-0.334,1.086-0.605,1.586-0.605h37.255c0.498,0,1.065,0.377,1.265,0.836L51.333,51.918z"/&gt;
&lt;path fill="none" stroke="#8D8D8D" stroke-width="0.25" stroke-linecap="round" stroke-linejoin="round" stroke-miterlimit="10" d="
	M51.333,51.918c0.195,0.459-0.053,0.836-0.553,0.836H0.58c-0.5,0-0.604-0.272-0.232-0.605l8.023-7.191
	c0.373-0.334,1.086-0.605,1.586-0.605h37.255c0.498,0,1.065,0.377,1.265,0.836L51.333,51.918z"/&gt;
&lt;path fill="#717171" d="M32.117,50.571c0,0.25-0.205,0.454-0.455,0.454H4.024c-0.25,0-0.304-0.139-0.119-0.307l5.638-5.154
	c0.184-0.17,0.539-0.309,0.789-0.309h21.332c0.25,0,0.454,0.205,0.454,0.455L32.117,50.571L32.117,50.571z"/&gt;
&lt;path fill="#717171" d="M40.738,50.598c0.086,0.236,0.359,0.428,0.609,0.428h7.465c0.25,0,0.375-0.188,0.279-0.42l-2.049-4.93
	c-0.098-0.229-0.379-0.42-0.629-0.42h-7.17c-0.25,0-0.386,0.191-0.301,0.428L40.738,50.598z"/&gt;
&lt;path fill="#717171" d="M32.89,50.571c0,0.25,0.205,0.454,0.455,0.454h6.135c0.25,0,0.382-0.189,0.293-0.426l-0.156-0.409
	c-0.089-0.233-0.365-0.421-0.615-0.416l-1.045,0.021c-0.25,0.004-0.509-0.189-0.574-0.432l-0.021-0.082
	c-0.065-0.242-0.321-0.439-0.571-0.439h-1.316c-0.25,0-0.444,0.205-0.432,0.453l0.002,0.059c0.016,0.25-0.181,0.455-0.431,0.459
	l-1.269,0.021c-0.25,0.006-0.454,0.211-0.454,0.461L32.89,50.571L32.89,50.571z"/&gt;
&lt;path fill="#717171" d="M32.89,47.004c0,0.25,0.205,0.455,0.455,0.455h4.845c0.25,0,0.396-0.195,0.323-0.437l-0.402-1.333
	c-0.07-0.238-0.335-0.438-0.585-0.438h-4.181c-0.25,0-0.455,0.205-0.455,0.455V47.004z"/&gt;
&lt;linearGradient id="SVGID_2_" gradientUnits="userSpaceOnUse" x1="535.2017" y1="-1418.6563" x2="511.4634" y2="-1418.6563" gradientTransform="matrix(1 0 0 -1 -488 -1376.627)"&gt;
	&lt;stop  offset="0" style="stop-color:#4D4D4D"/&gt;
	&lt;stop  offset="1" style="stop-color:#999999"/&gt;
&lt;/linearGradient&gt;
&lt;path fill="url(#SVGID_2_)" d="M47.048,40.514c0,0.965-6.758,1.404-12.371,1.404c-3.889,0-10.914-0.348-11.367-1.267
	c0,0.446,0,1.502,0,1.661c0,0.725,4.803,1.234,11.357,1.234c6.554,0,12.381-0.643,12.381-1.361
	C47.048,42.028,47.048,40.977,47.048,40.514z"/&gt;
&lt;path fill="#808080" d="M35.179,39.307c6.556,0,11.869,0.584,11.869,1.307c0,0.721-5.313,1.42-11.869,1.42
	c-6.701,0-11.869-0.697-11.869-1.42S28.625,39.307,35.179,39.307z"/&gt;
&lt;linearGradient id="SVGID_3_" gradientUnits="userSpaceOnUse" x1="525.7661" y1="-1412.6865" x2="520.77" y2="-1412.6865" gradientTransform="matrix(1 0 0 -1 -488 -1376.627)"&gt;
	&lt;stop  offset="0" style="stop-color:#999999"/&gt;
	&lt;stop  offset="0.0417" style="stop-color:#8D8D8D"/&gt;
	&lt;stop  offset="0.1617" style="stop-color:#717171"/&gt;
	&lt;stop  offset="0.2821" style="stop-color:#5D5D5D"/&gt;
	&lt;stop  offset="0.4021" style="stop-color:#515151"/&gt;
	&lt;stop  offset="0.5212" style="stop-color:#4D4D4D"/&gt;
	&lt;stop  offset="0.6202" style="stop-color:#565656"/&gt;
	&lt;stop  offset="0.7817" style="stop-color:#6E6E6E"/&gt;
	&lt;stop  offset="0.9844" style="stop-color:#969696"/&gt;
	&lt;stop  offset="1" style="stop-color:#999999"/&gt;
&lt;/linearGradient&gt;
&lt;path fill="url(#SVGID_3_)" d="M37.734,40.896c0,0-1.477,0.096-2.498,0.096s-2.499-0.096-2.499-0.096v-9.768h4.997V40.896z"/&gt;
&lt;radialGradient id="SVGID_4_" cx="415.8687" cy="-1386.5146" r="24.0778" gradientTransform="matrix(1.15 0 0 -1 -453.4719 -1376.627)" gradientUnits="userSpaceOnUse"&gt;
	&lt;stop  offset="0" style="stop-color:#F2F2F2"/&gt;
	&lt;stop  offset="1" style="stop-color:#666666"/&gt;
&lt;/radialGradient&gt;
&lt;path fill="url(#SVGID_4_)" d="M9.453,2.122c0-1.1,0.9-2,2-2h48.246c1.1,0,2,0.9,2,2v30.073c0,1.101-0.9,2-2,2H11.453
	c-1.1,0-2-0.899-2-2V2.122z"/&gt;
&lt;path fill="none" stroke="#666666" stroke-width="0.2436" stroke-linecap="round" stroke-linejoin="round" stroke-miterlimit="10" d="
	M9.453,2.122c0-1.1,0.9-2,2-2h48.246c1.1,0,2,0.9,2,2v30.073c0,1.101-0.9,2-2,2H11.453c-1.1,0-2-0.899-2-2V2.122z"/&gt;
&lt;radialGradient id="SVGID_5_" cx="402.1509" cy="-1378.3662" r="53.3339" fx="444.1083" fy="-1385.5538" gradientTransform="matrix(1.1935 0 0 -1 -443.5655 -1376.627)" gradientUnits="userSpaceOnUse"&gt;
	&lt;stop  offset="0" style="stop-color:#4D4D4D"/&gt;
	&lt;stop  offset="1" style="stop-color:#999999"/&gt;
&lt;/radialGradient&gt;
&lt;path fill="url(#SVGID_5_)" d="M10.475,3.143c0-1.1,0.9-2,2-2h46.429c1.1,0,2,0.9,2,2v27.805c0,1.1-0.9,2-2,2H12.475
	c-1.1,0-2-0.9-2-2V3.143z"/&gt;
&lt;radialGradient id="SVGID_6_" cx="402.939" cy="-1378.4502" r="34.1874" gradientTransform="matrix(1.1923 0 0 -1 -443.8286 -1376.627)" gradientUnits="userSpaceOnUse"&gt;
	&lt;stop  offset="0" style="stop-color:#9CD7FF"/&gt;
	&lt;stop  offset="1" style="stop-color:#3C89C9"/&gt;
&lt;/radialGradient&gt;
&lt;path fill="url(#SVGID_6_)" d="M11.043,3.598c0-1.1,0.9-2,2-2h45.294c1.1,0,2,0.9,2,2v26.895c0,1.1-0.9,2-2,2H13.043
	c-1.1,0-2-0.9-2-2V3.598z"/&gt;
&lt;path opacity="0.24" fill="#F2F2F2" d="M11.043,24.936V3.598c0-1.1,0.9-2,2-2h45.294c1.1,0,2,0.9,2,2v13.539l-23.164,4.94
	c-1.064,0.273-2.836,0.547-3.935,0.609L11.043,24.936z"/&gt;
&lt;path fill="#C9C9C9" d="M58.777,46.596c-0.003-0.002-0.005-0.002-0.007,0c-0.188-0.061-0.429-0.254-0.702-0.482
	C58.335,46.268,58.578,46.436,58.777,46.596z"/&gt;
&lt;radialGradient id="SVGID_7_" cx="450.8638" cy="1259.1514" r="6.3766" gradientTransform="matrix(1 0 0 1 -390.4004 -1211.6016)" gradientUnits="userSpaceOnUse"&gt;
	&lt;stop  offset="0.1939" style="stop-color:#C9C9C9"/&gt;
	&lt;stop  offset="0.3299" style="stop-color:#C6C6C6"/&gt;
	&lt;stop  offset="0.4405" style="stop-color:#BCBCBC"/&gt;
	&lt;stop  offset="0.5421" style="stop-color:#ABABAB"/&gt;
	&lt;stop  offset="0.6378" style="stop-color:#939393"/&gt;
	&lt;stop  offset="0.697" style="stop-color:#808080"/&gt;
&lt;/radialGradient&gt;
&lt;path fill="url(#SVGID_7_)" d="M58.77,46.596c0.005,0.002,0.007,0.002,0.009,0.002c0.002,0.004,0.006,0.004,0.006,0.004
	c0.084,0.023,0.153,0.021,0.213-0.021c0.017-0.008,0.026-0.021,0.037-0.041c0.604-0.119,1.329-0.154,2.197-0.086
	c2.032,1.545,3.77,4.625,1.18,5.801c-2.048,0.929-3.543,0.783-4.722-0.485c-0.624-0.675-1.239-1.47-1.729-2.265
	C56.226,48.369,56.855,47.061,58.77,46.596z"/&gt;
&lt;radialGradient id="SVGID_8_" cx="603.5698" cy="1426.6348" r="3.8245" gradientTransform="matrix(0.9761 0.2173 -0.1478 0.6641 -320.0412 -1031.1759)" gradientUnits="userSpaceOnUse"&gt;
	&lt;stop  offset="0.1939" style="stop-color:#C9C9C9"/&gt;
	&lt;stop  offset="0.3739" style="stop-color:#C6C6C6"/&gt;
	&lt;stop  offset="0.5203" style="stop-color:#BCBCBC"/&gt;
	&lt;stop  offset="0.6549" style="stop-color:#ABABAB"/&gt;
	&lt;stop  offset="0.7816" style="stop-color:#939494"/&gt;
	&lt;stop  offset="0.8364" style="stop-color:#868787"/&gt;
&lt;/radialGradient&gt;
&lt;path fill="url(#SVGID_8_)" d="M55.96,49.504c-0.893-1.438-1.355-2.869-0.664-3.533c0.244-0.236,0.539-0.422,0.863-0.559
	c0.6,0.051,1.307,0.346,1.9,0.691c0.002,0,0.005,0.004,0.007,0.006c0.272,0.229,0.519,0.426,0.702,0.482
	C56.855,47.061,56.226,48.369,55.96,49.504z"/&gt;
&lt;radialGradient id="SVGID_9_" cx="448.7241" cy="1259.3271" r="3.928" gradientTransform="matrix(1 0 0 1 -390.4004 -1211.6016)" gradientUnits="userSpaceOnUse"&gt;
	&lt;stop  offset="0.1939" style="stop-color:#C9C9C9"/&gt;
	&lt;stop  offset="0.3496" style="stop-color:#C6C6C6"/&gt;
	&lt;stop  offset="0.4761" style="stop-color:#BCBCBC"/&gt;
	&lt;stop  offset="0.5925" style="stop-color:#ABABAB"/&gt;
	&lt;stop  offset="0.702" style="stop-color:#939393"/&gt;
	&lt;stop  offset="0.7697" style="stop-color:#808080"/&gt;
&lt;/radialGradient&gt;
&lt;path fill="url(#SVGID_9_)" d="M56.16,45.414c1.353-0.564,3.287-0.266,4.963,0.955c0.035,0.025,0.073,0.055,0.109,0.084
	c-0.867-0.068-1.818-0.033-2.427,0.086c-0.109-0.105-0.763-0.449-0.744-0.434C57.464,45.758,56.757,45.463,56.16,45.414z"/&gt;
&lt;path fill="none" stroke="#717171" stroke-width="0.1136" stroke-linecap="round" stroke-miterlimit="10" d="M56.16,45.414
	c1.353-0.564,3.287-0.266,4.963,0.955c0.035,0.025,0.073,0.055,0.109,0.084c2.032,1.545,3.77,4.627,1.18,5.801
	c-2.048,0.93-3.543,0.785-4.722-0.484c-0.624-0.676-1.239-1.471-1.729-2.264c-0.892-1.438-1.354-2.871-0.664-3.533
	C55.541,45.734,55.835,45.549,56.16,45.414z"/&gt;
&lt;path fill="none" stroke="#717171" stroke-width="0.1136" stroke-linecap="round" stroke-miterlimit="10" d="M58.777,46.596
	c0.083-0.021,0.168-0.041,0.258-0.057c0.604-0.119,1.329-0.154,2.197-0.086"/&gt;
&lt;path fill="none" stroke="#717171" stroke-width="0.1136" stroke-linecap="round" stroke-miterlimit="10" d="M55.958,49.516
	c0-0.002,0.002-0.008,0.002-0.012c0.269-1.135,0.896-2.441,2.813-2.908"/&gt;
&lt;path fill="none" stroke="#717171" stroke-width="0.1136" stroke-linecap="round" stroke-miterlimit="10" d="M58.061,46.105
	c-0.597-0.35-1.306-0.643-1.901-0.693"/&gt;
&lt;path fill="none" stroke="#717171" stroke-width="0.1136" stroke-linecap="round" stroke-miterlimit="10" d="M58.779,46.598
	c0-0.002,0-0.002-0.002-0.002c-0.199-0.16-0.441-0.328-0.709-0.482"/&gt;
&lt;path fill="#4D4D4D" d="M58.259,45.936c0.354,0.264,0.438,0.48,0.548,0.604c-0.091,0.018-0.173,0.033-0.259,0.059
	c-0.355-0.393-0.996-0.666-0.955-0.727C57.688,45.729,58.063,45.791,58.259,45.936z"/&gt;
&lt;/svg&gt;
</y:Resource>
      <y:Resource id="3">&lt;?xml version="1.0" encoding="utf-8"?&gt;
&lt;svg version="1.1"
	 xmlns="http://www.w3.org/2000/svg" xmlns:xlink="http://www.w3.org/1999/xlink"
	 x="0px" y="0px" width="23px" height="38px" viewBox="0 0 23 38" enable-background="new 0 0 23 38" xml:space="preserve"&gt;
&lt;defs&gt;
&lt;/defs&gt;
&lt;g&gt;
	&lt;path fill="#C5C5C5" d="M23,35.916C23,37.063,22.063,38,20.916,38H2.084C0.938,38,0,37.063,0,35.916V2.084C0,0.938,0.938,0,2.084,0
		h18.832C22.063,0,23,0.938,23,2.084V35.916z"/&gt;
&lt;/g&gt;
&lt;g&gt;
	&lt;linearGradient id="SVGID_1_" gradientUnits="userSpaceOnUse" x1="11.5005" y1="34" x2="11.5005" y2="2.0005"&gt;
		&lt;stop  offset="0" style="stop-color:#515151"/&gt;
		&lt;stop  offset="1" style="stop-color:#848484"/&gt;
	&lt;/linearGradient&gt;
	&lt;path fill="url(#SVGID_1_)" d="M22,32.184C22,33.187,21.187,34,20.184,34H2.816C1.813,34,1,33.187,1,32.184V3.816
		C1,2.813,1.813,2,2.816,2h17.367C21.187,2,22,2.813,22,3.816V32.184z"/&gt;
&lt;/g&gt;
&lt;radialGradient id="SVGID_2_" cx="11.5" cy="4.1665" r="23.5037" gradientTransform="matrix(1 0 0 0.9565 0 1.1737)" gradientUnits="userSpaceOnUse"&gt;
	&lt;stop  offset="0" style="stop-color:#9CD7FF"/&gt;
	&lt;stop  offset="1" style="stop-color:#3C89C9"/&gt;
&lt;/radialGradient&gt;
&lt;rect x="2" y="5" fill="url(#SVGID_2_)" width="19" height="22"/&gt;
&lt;linearGradient id="SVGID_3_" gradientUnits="userSpaceOnUse" x1="11.5835" y1="31.5" x2="11.5835" y2="29.334"&gt;
	&lt;stop  offset="0" style="stop-color:#B8B8B8"/&gt;
	&lt;stop  offset="1" style="stop-color:#F2F2F2"/&gt;
&lt;/linearGradient&gt;
&lt;ellipse fill="url(#SVGID_3_)" cx="11.583" cy="30.417" rx="1.5" ry="1.083"/&gt;
&lt;linearGradient id="SVGID_4_" gradientUnits="userSpaceOnUse" x1="15.334" y1="31.1709" x2="15.334" y2="29.6631"&gt;
	&lt;stop  offset="0" style="stop-color:#B8B8B8"/&gt;
	&lt;stop  offset="1" style="stop-color:#F2F2F2"/&gt;
&lt;/linearGradient&gt;
&lt;ellipse fill="url(#SVGID_4_)" cx="15.333" cy="30.417" rx="1.043" ry="0.754"/&gt;
&lt;linearGradient id="SVGID_5_" gradientUnits="userSpaceOnUse" x1="19.084" y1="31.1709" x2="19.084" y2="29.6631"&gt;
	&lt;stop  offset="0" style="stop-color:#B8B8B8"/&gt;
	&lt;stop  offset="1" style="stop-color:#F2F2F2"/&gt;
&lt;/linearGradient&gt;
&lt;ellipse fill="url(#SVGID_5_)" cx="19.083" cy="30.417" rx="1.043" ry="0.754"/&gt;
&lt;linearGradient id="SVGID_6_" gradientUnits="userSpaceOnUse" x1="4.0835" y1="31.1709" x2="4.0835" y2="29.6631"&gt;
	&lt;stop  offset="0" style="stop-color:#B8B8B8"/&gt;
	&lt;stop  offset="1" style="stop-color:#F2F2F2"/&gt;
&lt;/linearGradient&gt;
&lt;ellipse fill="url(#SVGID_6_)" cx="4.083" cy="30.417" rx="1.043" ry="0.754"/&gt;
&lt;linearGradient id="SVGID_7_" gradientUnits="userSpaceOnUse" x1="7.8335" y1="31.1709" x2="7.8335" y2="29.6631"&gt;
	&lt;stop  offset="0" style="stop-color:#B8B8B8"/&gt;
	&lt;stop  offset="1" style="stop-color:#F2F2F2"/&gt;
&lt;/linearGradient&gt;
&lt;ellipse fill="url(#SVGID_7_)" cx="7.833" cy="30.417" rx="1.043" ry="0.754"/&gt;
&lt;linearGradient id="SVGID_8_" gradientUnits="userSpaceOnUse" x1="11.0835" y1="4.3682" x2="11.0835" y2="2.4658"&gt;
	&lt;stop  offset="0" style="stop-color:#B8B8B8"/&gt;
	&lt;stop  offset="1" style="stop-color:#A2A2A2"/&gt;
&lt;/linearGradient&gt;
&lt;ellipse fill="url(#SVGID_8_)" cx="11.083" cy="3.417" rx="1.063" ry="0.951"/&gt;
&lt;linearGradient id="SVGID_9_" gradientUnits="userSpaceOnUse" x1="11.0835" y1="3.916" x2="11.0835" y2="2.918"&gt;
	&lt;stop  offset="0" style="stop-color:#9CD7FF"/&gt;
	&lt;stop  offset="1" style="stop-color:#F2F2F2"/&gt;
&lt;/linearGradient&gt;
&lt;ellipse fill="url(#SVGID_9_)" cx="11.083" cy="3.417" rx="0.558" ry="0.499"/&gt;
&lt;path opacity="0.24" fill="#F2F2F2" d="M20.938,15.065c0,0-6.654,2.879-10.771,4.019C6.05,20.223,2,21.125,2,21.125V5h19
	L20.938,15.065z"/&gt;
&lt;/svg&gt;
</y:Resource>
    </y:Resources>
  </data>
</graphml>
